<svg xmlns="http://www.w3.org/2000/svg" xmlns:xlink="http://www.w3.org/1999/xlink" width="26" height="26" viewBox="0 0 26 26">
  <defs>
    <clipPath id="clip-Icon-Down">
      <rect width="26" height="26"/>
    </clipPath>
  </defs>
  <g id="Icon-Down" clip-path="url(#clip-Icon-Down)">
    <g id="Group_13" data-name="Group 13" transform="translate(510 -249)">
      <path id="Path_1" data-name="Path 1" d="M13,0,11.567,1.433,22.11,11.976H0v2.047H22.11L11.567,24.567,13,26,26,13Z" transform="translate(-484 249) rotate(90)" fill="#0c9"/>
    </g>
  </g>
</svg>
