<svg id="Play-Button" xmlns="http://www.w3.org/2000/svg" width="45" height="50" viewBox="0 0 45 50">
  <path id="Path_51" data-name="Path 51" d="M12011.135,5894.141l-45,25.115v-50Z" transform="translate(-11966.135 -5869.256)" fill="#fff"/>
</svg>
